[
  {
    "id": "206962a9-8e21-4111-aebe-d0a843f0738e",
    "firstName": "Hans",
    "lastName": "Dampf",
    "classifierIds": []
  },
  {
    "id": "2",
    "firstName": "Hans2",
    "lastName": "Dampf2",
    "classifierIds": []
  },
  {
    "id": "3",
    "firstName": "Hans3",
    "lastName": "Dampf3",
    "classifierIds": []
  },
  {
    "id": "4",
    "firstName": "Hans4",
    "lastName": "Dampf4",
    "classifierIds": []
  },
  {
    "id": "5",
    "firstName": "Hans5",
    "lastName": "Dampf5",
    "classifierIds": []
  }
]
