  ____           ____                         _    __  __ ____
 |  _ \ ___  ___|  _ \ _ __ ___              / \  |  \/  / ___|
 | |_) / _ \/ __| |_) | '__/ _ \   _____    / _ \ | |\/| \___ \
 |  _ <  __/ (__|  __/| | | (_) | |_____|  / ___ \| |  | |___) |
 |_| \_\___|\___|_|   |_|  \___/          /_/   \_\_|  |_|____/
