[
  {
    "id": "1",
    "name": "E-Mail",
    "description": "System (E-Mail)",
    "activityIds":
            [
              "1",
              "3",
              "4",
              "5"
            ]
  },
  {
    "id": "2",
    "name": "Excel",
    "description": "System (Excel)",
    "activityIds":
    [
      "2",
      "4",
      "5"
    ]
  },
  {
    "id": "3",
    "name": "Roster",
    "description": "Document (Roster)",
    "activityIds":
    [
      "2",
      "3"
    ]
  },
  {
    "id": "4",
    "name": "Communication Technician",
    "description": "Communication flow (technician)",
    "activityIds":
    [
      "3",
      "4",
      "5"
    ]
  },
  {
    "id": "5",
    "name": "Communication Customer",
    "description": "Communication flow (customer)",
    "activityIds":
    [
      "1",
      "4"
    ]
  }
]
